…
1. 請保留「省份」 (`Province`) 和「國家」 (`Country`) 這兩個欄位不變動，將它轉為 **tidy** 的長表格(即符合**每個橫列代表一個觀察值且每個直欄代表一個變數**的形式)，以 `Date` 和 `Confirmed`  為變數(欄位)名稱整理各國各省份不同日期的確診人數。*提示：你可能會需要用到 `tidyr` 這個套件。*
1. 請將整理好的資料儲存到 `tidydf` 這個變數裡。

```{r}
# Write your code here

#### Do not modify the code below ####
tidydf
# Should print out:
#> # A tibble: 124,122 x 4
#>    Province                     Country             Date    Confirmed
#>    <chr>                        <chr>               <chr>       <dbl>
#>  1 <NA>                         Afghanistan         1/22/20         0
#>  2 <NA>                         Albania             1/22/20         0
#>  3 <NA>                         Algeria             1/22/20         0
#>  4 <NA>                         Andorra             1/22/20         0
#>  5 <NA>                         Angola              1/22/20         0
#>  6 <NA>                         Antigua and Barbuda 1/22/20         0
#>  7 <NA>                         Argentina           1/22/20         0
#>  8 <NA>                         Armenia             1/22/20         0
#>  9 Australian Capital Territory Australia           1/22/20         0
#> 10 New South Wales              Australia           1/22/20         0
#> # ... with 124,112 more rows
```


### Make a summary table (5分)

請使用 `as.Date` 這個函數將 `Date` 欄位的資料型態從 `<chr>` 轉為 `<date>` *(若不熟悉這個函數，可使用 `?as.Date` 查看說明)*，並整理出各國不分省份從 2020/1/22 至 2021/4/18 的每日總確診人數摘要表，並儲存到 `tidysum` 這個變數裡。

```{r}
# Write your code here

#### Do not modify the code below ####
tidysum %>% filter(Country %in% c("Canada", "United Kingdom"), Confirmed > 1000000)
# Should print out:
#> # A tibble: 186 x 3
#>    Country Date       Confirmed
#>    <chr>   <date>         <dbl>
#>  1 Canada  2021-04-03   1005296
#>  2 Canada  2021-04-04   1008808
#>  3 Canada  2021-04-05   1017130
#>  4 Canada  2021-04-06   1027854
#>  5 Canada  2021-04-07   1035242
#>  6 Canada  2021-04-08   1043478
#>  7 Canada  2021-04-09   1052560
#>  8 Canada  2021-04-10   1060052
#>  9 Canada  2021-04-11   1067764
#> 10 Canada  2021-04-12   1078482
#> # ... with 176 more rows
```
…
